1 -1.5 -1.2 -1 -0.7 0.1 0.8 1.4 2.2 2.5 3 
-1.5 1412.5 1196.5 1062.5 876.5 468.5 216.5 78.5 6.5 12.5 62.5 
-1 629 488 404 293 85 8 20 148 229 404 
0 226 145 101 50 2 65 197 485 626 901 
0.1 228.82 147.22 102.82 51.22 1.62 63.22 194.02 480.42 620.82 894.82 
0.2 237.8 154.4 108.8 55.4 1 58.4 185.6 467.2 605.8 876.8 
0.5 306.5 210.5 156.5 90.5 2.5 30.5 132.5 380.5 506.5 756.5 
0.9 533.62 404.02 327.62 228.02 50.42 0.02 34.82 193.22 285.62 479.62 
1.1 734.42 580.82 488.42 364.82 123.22 16.82 3.62 98.02 166.42 320.42 
0.7 396.1 285.7 222.1 141.7 15.3 9.7 82.9 292.5 404.1 630.1 
1.5 1406.5 1190.5 1056.5 870.5 462.5 210.5 72.5 0.5 6.5 56.5 
2 3026 2705 2501 2210 1522 1025 677 325 226 101 
3 11029 10408 10004 9413 7925 6728 5780 4628 4229 3604 
