<?xml version="1.0" encoding="utf-8"  standalone="no"?>
<!DOCTYPE svg PUBLIC "-//W3C//DTD SVG 1.1//EN"
 "http://www.w3.org/Graphics/SVG/1.1/DTD/svg11.dtd">
<svg 
 width="600" height="480"
 viewBox="0 0 600 480"
 xmlns="http://www.w3.org/2000/svg"
 xmlns:xlink="http://www.w3.org/1999/xlink"
>

<title>Gnuplot</title>
<desc>Produced by GNUPLOT 5.0 patchlevel 5 </desc>

<g id="gnuplot_canvas">

<rect x="0" y="0" width="600" height="480" fill="#ffffff"/>
<defs>

	<circle id='gpDot' r='0.5' stroke-width='0.5'/>
	<path id='gpPt0' stroke-width='0.222' stroke='currentColor' d='M-1,0 h2 M0,-1 v2'/>
	<path id='gpPt1' stroke-width='0.222' stroke='currentColor' d='M-1,-1 L1,1 M1,-1 L-1,1'/>
	<path id='gpPt2' stroke-width='0.222' stroke='currentColor' d='M-1,0 L1,0 M0,-1 L0,1 M-1,-1 L1,1 M-1,1 L1,-1'/>
	<rect id='gpPt3' stroke-width='0.222' stroke='currentColor' x='-1' y='-1' width='2' height='2'/>
	<rect id='gpPt4' stroke-width='0.222' stroke='currentColor' fill='currentColor' x='-1' y='-1' width='2' height='2'/>
	<circle id='gpPt5' stroke-width='0.222' stroke='currentColor' cx='0' cy='0' r='1'/>
	<use xlink:href='#gpPt5' id='gpPt6' fill='currentColor' stroke='none'/>
	<path id='gpPt7' stroke-width='0.222' stroke='currentColor' d='M0,-1.33 L-1.33,0.67 L1.33,0.67 z'/>
	<use xlink:href='#gpPt7' id='gpPt8' fill='currentColor' stroke='none'/>
	<use xlink:href='#gpPt7' id='gpPt9' stroke='currentColor' transform='rotate(180)'/>
	<use xlink:href='#gpPt9' id='gpPt10' fill='currentColor' stroke='none'/>
	<use xlink:href='#gpPt3' id='gpPt11' stroke='currentColor' transform='rotate(45)'/>
	<use xlink:href='#gpPt11' id='gpPt12' fill='currentColor' stroke='none'/>
	<path id='gpPt13' stroke-width='0.222' stroke='currentColor' d='M0,1.330 L1.265,0.411 L0.782,-1.067 L-0.782,-1.076 L-1.265,0.411 z'/>
	<use xlink:href='#gpPt13' id='gpPt14' fill='currentColor' stroke='none'/>
	<filter id='textbox' filterUnits='objectBoundingBox' x='0' y='0' height='1' width='1'>
	  <feFlood flood-color='#FFFFFF' flood-opacity='1' result='bgnd'/>
	  <feComposite in='SourceGraphic' in2='bgnd' operator='atop'/>
	</filter>
	<filter id='greybox' filterUnits='objectBoundingBox' x='0' y='0' height='1' width='1'>
	  <feFlood flood-color='lightgrey' flood-opacity='1' result='grey'/>
	  <feComposite in='SourceGraphic' in2='grey' operator='atop'/>
	</filter>
</defs>
<g fill="none" color="#FFFFFF" stroke="currentColor" stroke-width="1.00" stroke-linecap="butt" stroke-linejoin="miter">
</g>
<g fill="none" color="black" stroke="currentColor" stroke-width="1.00" stroke-linecap="butt" stroke-linejoin="miter">
	<path stroke='black'  d='M71.9,422.4 L80.9,422.4 M575.0,422.4 L566.0,422.4  '/>	<g transform="translate(63.6,426.3)" stroke="none" fill="black" font-family="Arial" font-size="12.00"  text-anchor="end">
		<text><tspan font-family="Arial" > 1</tspan></text>
	</g>
</g>
<g fill="none" color="black" stroke="currentColor" stroke-width="1.00" stroke-linecap="butt" stroke-linejoin="miter">
	<path stroke='black'  d='M71.9,381.5 L80.9,381.5 M575.0,381.5 L566.0,381.5  '/>	<g transform="translate(63.6,385.4)" stroke="none" fill="black" font-family="Arial" font-size="12.00"  text-anchor="end">
		<text><tspan font-family="Arial" > 1.5</tspan></text>
	</g>
</g>
<g fill="none" color="black" stroke="currentColor" stroke-width="1.00" stroke-linecap="butt" stroke-linejoin="miter">
	<path stroke='black'  d='M71.9,340.6 L80.9,340.6 M575.0,340.6 L566.0,340.6  '/>	<g transform="translate(63.6,344.5)" stroke="none" fill="black" font-family="Arial" font-size="12.00"  text-anchor="end">
		<text><tspan font-family="Arial" > 2</tspan></text>
	</g>
</g>
<g fill="none" color="black" stroke="currentColor" stroke-width="1.00" stroke-linecap="butt" stroke-linejoin="miter">
	<path stroke='black'  d='M71.9,299.6 L80.9,299.6 M575.0,299.6 L566.0,299.6  '/>	<g transform="translate(63.6,303.5)" stroke="none" fill="black" font-family="Arial" font-size="12.00"  text-anchor="end">
		<text><tspan font-family="Arial" > 2.5</tspan></text>
	</g>
</g>
<g fill="none" color="black" stroke="currentColor" stroke-width="1.00" stroke-linecap="butt" stroke-linejoin="miter">
	<path stroke='black'  d='M71.9,258.7 L80.9,258.7 M575.0,258.7 L566.0,258.7  '/>	<g transform="translate(63.6,262.6)" stroke="none" fill="black" font-family="Arial" font-size="12.00"  text-anchor="end">
		<text><tspan font-family="Arial" > 3</tspan></text>
	</g>
</g>
<g fill="none" color="black" stroke="currentColor" stroke-width="1.00" stroke-linecap="butt" stroke-linejoin="miter">
	<path stroke='black'  d='M71.9,217.8 L80.9,217.8 M575.0,217.8 L566.0,217.8  '/>	<g transform="translate(63.6,221.7)" stroke="none" fill="black" font-family="Arial" font-size="12.00"  text-anchor="end">
		<text><tspan font-family="Arial" > 3.5</tspan></text>
	</g>
</g>
<g fill="none" color="black" stroke="currentColor" stroke-width="1.00" stroke-linecap="butt" stroke-linejoin="miter">
	<path stroke='black'  d='M71.9,176.9 L80.9,176.9 M575.0,176.9 L566.0,176.9  '/>	<g transform="translate(63.6,180.8)" stroke="none" fill="black" font-family="Arial" font-size="12.00"  text-anchor="end">
		<text><tspan font-family="Arial" > 4</tspan></text>
	</g>
</g>
<g fill="none" color="black" stroke="currentColor" stroke-width="1.00" stroke-linecap="butt" stroke-linejoin="miter">
	<path stroke='black'  d='M71.9,135.9 L80.9,135.9 M575.0,135.9 L566.0,135.9  '/>	<g transform="translate(63.6,139.8)" stroke="none" fill="black" font-family="Arial" font-size="12.00"  text-anchor="end">
		<text><tspan font-family="Arial" > 4.5</tspan></text>
	</g>
</g>
<g fill="none" color="black" stroke="currentColor" stroke-width="1.00" stroke-linecap="butt" stroke-linejoin="miter">
	<path stroke='black'  d='M71.9,95.0 L80.9,95.0 M575.0,95.0 L566.0,95.0  '/>	<g transform="translate(63.6,98.9)" stroke="none" fill="black" font-family="Arial" font-size="12.00"  text-anchor="end">
		<text><tspan font-family="Arial" > 5</tspan></text>
	</g>
</g>
<g fill="none" color="black" stroke="currentColor" stroke-width="1.00" stroke-linecap="butt" stroke-linejoin="miter">
	<path stroke='black'  d='M71.9,54.1 L80.9,54.1 M575.0,54.1 L566.0,54.1  '/>	<g transform="translate(63.6,58.0)" stroke="none" fill="black" font-family="Arial" font-size="12.00"  text-anchor="end">
		<text><tspan font-family="Arial" > 5.5</tspan></text>
	</g>
</g>
<g fill="none" color="black" stroke="currentColor" stroke-width="1.00" stroke-linecap="butt" stroke-linejoin="miter">
	<path stroke='black'  d='M71.9,422.4 L71.9,413.4 M71.9,54.1 L71.9,63.1  '/>	<g transform="translate(71.9,444.3)" stroke="none" fill="black" font-family="Arial" font-size="12.00"  text-anchor="middle">
		<text><tspan font-family="Arial" > 0</tspan></text>
	</g>
</g>
<g fill="none" color="black" stroke="currentColor" stroke-width="1.00" stroke-linecap="butt" stroke-linejoin="miter">
	<path stroke='black'  d='M122.2,422.4 L122.2,413.4 M122.2,54.1 L122.2,63.1  '/>	<g transform="translate(122.2,444.3)" stroke="none" fill="black" font-family="Arial" font-size="12.00"  text-anchor="middle">
		<text><tspan font-family="Arial" > 1</tspan></text>
	</g>
</g>
<g fill="none" color="black" stroke="currentColor" stroke-width="1.00" stroke-linecap="butt" stroke-linejoin="miter">
	<path stroke='black'  d='M172.5,422.4 L172.5,413.4 M172.5,54.1 L172.5,63.1  '/>	<g transform="translate(172.5,444.3)" stroke="none" fill="black" font-family="Arial" font-size="12.00"  text-anchor="middle">
		<text><tspan font-family="Arial" > 2</tspan></text>
	</g>
</g>
<g fill="none" color="black" stroke="currentColor" stroke-width="1.00" stroke-linecap="butt" stroke-linejoin="miter">
	<path stroke='black'  d='M222.8,422.4 L222.8,413.4 M222.8,54.1 L222.8,63.1  '/>	<g transform="translate(222.8,444.3)" stroke="none" fill="black" font-family="Arial" font-size="12.00"  text-anchor="middle">
		<text><tspan font-family="Arial" > 3</tspan></text>
	</g>
</g>
<g fill="none" color="black" stroke="currentColor" stroke-width="1.00" stroke-linecap="butt" stroke-linejoin="miter">
	<path stroke='black'  d='M273.1,422.4 L273.1,413.4 M273.1,54.1 L273.1,63.1  '/>	<g transform="translate(273.1,444.3)" stroke="none" fill="black" font-family="Arial" font-size="12.00"  text-anchor="middle">
		<text><tspan font-family="Arial" > 4</tspan></text>
	</g>
</g>
<g fill="none" color="black" stroke="currentColor" stroke-width="1.00" stroke-linecap="butt" stroke-linejoin="miter">
	<path stroke='black'  d='M323.5,422.4 L323.5,413.4 M323.5,54.1 L323.5,63.1  '/>	<g transform="translate(323.5,444.3)" stroke="none" fill="black" font-family="Arial" font-size="12.00"  text-anchor="middle">
		<text><tspan font-family="Arial" > 5</tspan></text>
	</g>
</g>
<g fill="none" color="black" stroke="currentColor" stroke-width="1.00" stroke-linecap="butt" stroke-linejoin="miter">
	<path stroke='black'  d='M373.8,422.4 L373.8,413.4 M373.8,54.1 L373.8,63.1  '/>	<g transform="translate(373.8,444.3)" stroke="none" fill="black" font-family="Arial" font-size="12.00"  text-anchor="middle">
		<text><tspan font-family="Arial" > 6</tspan></text>
	</g>
</g>
<g fill="none" color="black" stroke="currentColor" stroke-width="1.00" stroke-linecap="butt" stroke-linejoin="miter">
	<path stroke='black'  d='M424.1,422.4 L424.1,413.4 M424.1,54.1 L424.1,63.1  '/>	<g transform="translate(424.1,444.3)" stroke="none" fill="black" font-family="Arial" font-size="12.00"  text-anchor="middle">
		<text><tspan font-family="Arial" > 7</tspan></text>
	</g>
</g>
<g fill="none" color="black" stroke="currentColor" stroke-width="1.00" stroke-linecap="butt" stroke-linejoin="miter">
	<path stroke='black'  d='M474.4,422.4 L474.4,413.4 M474.4,54.1 L474.4,63.1  '/>	<g transform="translate(474.4,444.3)" stroke="none" fill="black" font-family="Arial" font-size="12.00"  text-anchor="middle">
		<text><tspan font-family="Arial" > 8</tspan></text>
	</g>
</g>
<g fill="none" color="black" stroke="currentColor" stroke-width="1.00" stroke-linecap="butt" stroke-linejoin="miter">
	<path stroke='black'  d='M524.7,422.4 L524.7,413.4 M524.7,54.1 L524.7,63.1  '/>	<g transform="translate(524.7,444.3)" stroke="none" fill="black" font-family="Arial" font-size="12.00"  text-anchor="middle">
		<text><tspan font-family="Arial" > 9</tspan></text>
	</g>
</g>
<g fill="none" color="black" stroke="currentColor" stroke-width="1.00" stroke-linecap="butt" stroke-linejoin="miter">
	<path stroke='black'  d='M575.0,422.4 L575.0,413.4 M575.0,54.1 L575.0,63.1  '/>	<g transform="translate(575.0,444.3)" stroke="none" fill="black" font-family="Arial" font-size="12.00"  text-anchor="middle">
		<text><tspan font-family="Arial" > 10</tspan></text>
	</g>
</g>
<g fill="none" color="black" stroke="currentColor" stroke-width="1.00" stroke-linecap="butt" stroke-linejoin="miter">
</g>
<g fill="none" color="black" stroke="currentColor" stroke-width="1.00" stroke-linecap="butt" stroke-linejoin="miter">
	<path stroke='black'  d='M71.9,54.1 L71.9,422.4 L575.0,422.4 L575.0,54.1 L71.9,54.1 Z  '/></g>
<g fill="none" color="black" stroke="currentColor" stroke-width="1.00" stroke-linecap="butt" stroke-linejoin="miter">
	<g transform="translate(17.0,238.3) rotate(270)" stroke="none" fill="black" font-family="Arial" font-size="12.00"  text-anchor="middle">
		<text><tspan font-family="Arial" >y</tspan></text>
	</g>
</g>
<g fill="none" color="black" stroke="currentColor" stroke-width="1.00" stroke-linecap="butt" stroke-linejoin="miter">
	<g transform="translate(323.4,471.3)" stroke="none" fill="black" font-family="Arial" font-size="12.00"  text-anchor="middle">
		<text><tspan font-family="Arial" >x</tspan></text>
	</g>
</g>
<g fill="none" color="black" stroke="currentColor" stroke-width="1.00" stroke-linecap="butt" stroke-linejoin="miter">
	<g transform="translate(323.4,31.0)" stroke="none" fill="black" font-family="Arial" font-size="12.00"  text-anchor="middle">
		<text><tspan font-family="Arial" >Fit to data</tspan></text>
	</g>
</g>
	<g id="gnuplot_plot_1" ><title>Fit</title>
<g fill="none" color="black" stroke="currentColor" stroke-width="1.00" stroke-linecap="butt" stroke-linejoin="miter">
	<g transform="translate(507.9,76.0)" stroke="none" fill="black" font-family="Arial" font-size="12.00"  text-anchor="end">
		<text><tspan font-family="Arial" >Fit</tspan></text>
	</g>
</g>
<g fill="none" color="black" stroke="currentColor" stroke-width="1.00" stroke-linecap="butt" stroke-linejoin="miter">
	<path stroke='rgb(148,   0, 211)'  d='M516.2,72.1 L558.4,72.1 M83.5,132.5 L84.4,134.1 L85.4,135.7 L86.4,137.2 L87.3,138.8 L88.3,140.4
		L89.2,142.0 L90.2,143.5 L91.2,145.1 L92.1,146.6 L93.1,148.1 L94.0,149.6 L95.0,151.1 L96.0,152.6
		L96.9,154.1 L97.9,155.6 L98.8,157.1 L99.8,158.5 L100.7,160.0 L101.7,161.4 L102.7,162.9 L103.6,164.3
		L104.6,165.7 L105.5,167.1 L106.5,168.5 L107.5,169.9 L108.4,171.3 L109.4,172.7 L110.3,174.1 L111.3,175.4
		L112.3,176.8 L113.2,178.1 L114.2,179.4 L115.1,180.8 L116.1,182.1 L117.1,183.4 L118.0,184.7 L119.0,186.0
		L119.9,187.3 L120.9,188.6 L121.9,189.9 L122.8,191.1 L123.8,192.4 L124.7,193.6 L125.7,194.9 L126.7,196.1
		L127.6,197.4 L128.6,198.6 L129.5,199.8 L130.5,201.0 L131.5,202.2 L132.4,203.4 L133.4,204.6 L134.3,205.8
		L135.3,206.9 L136.3,208.1 L137.2,209.3 L138.2,210.4 L139.1,211.6 L140.1,212.7 L141.1,213.8 L142.0,215.0
		L143.0,216.1 L143.9,217.2 L144.9,218.3 L145.9,219.4 L146.8,220.5 L147.8,221.6 L148.7,222.6 L149.7,223.7
		L150.7,224.8 L151.6,225.8 L152.6,226.9 L153.5,227.9 L154.5,229.0 L155.5,230.0 L156.4,231.1 L157.4,232.1
		L158.3,233.1 L159.3,234.1 L160.3,235.1 L161.2,236.1 L162.2,237.1 L163.1,238.1 L164.1,239.1 L165.1,240.0
		L166.0,241.0 L167.0,242.0 L167.9,242.9 L168.9,243.9 L169.9,244.8 L170.8,245.8 L171.8,246.7 L172.7,247.6
		L173.7,248.6 L174.7,249.5 L175.6,250.4 L176.6,251.3 L177.5,252.2 L178.5,253.1 L179.5,254.0 L180.4,254.9
		L181.4,255.8 L182.3,256.6 L183.3,257.5 L184.3,258.4 L185.2,259.2 L186.2,260.1 L187.1,260.9 L188.1,261.8
		L189.1,262.6 L190.0,263.5 L191.0,264.3 L191.9,265.1 L192.9,265.9 L193.9,266.8 L194.8,267.6 L195.8,268.4
		L196.7,269.2 L197.7,270.0 L198.7,270.8 L199.6,271.6 L200.6,272.3 L201.5,273.1 L202.5,273.9 L203.5,274.7
		L204.4,275.4 L205.4,276.2 L206.3,276.9 L207.3,277.7 L208.3,278.4 L209.2,279.2 L210.2,279.9 L211.1,280.6
		L212.1,281.4 L213.1,282.1 L214.0,282.8 L215.0,283.5 L215.9,284.2 L216.9,285.0 L217.9,285.7 L218.8,286.4
		L219.8,287.1 L220.7,287.7 L221.7,288.4 L222.7,289.1 L223.6,289.8 L224.6,290.5 L225.5,291.1 L226.5,291.8
		L227.5,292.5 L228.4,293.1 L229.4,293.8 L230.3,294.4 L231.3,295.1 L232.3,295.7 L233.2,296.4 L234.2,297.0
		L235.1,297.6 L236.1,298.3 L237.1,298.9 L238.0,299.5 L239.0,300.1 L239.9,300.7 L240.9,301.3 L241.9,301.9
		L242.8,302.5 L243.8,303.1 L244.7,303.7 L245.7,304.3 L246.7,304.9 L247.6,305.5 L248.6,306.1 L249.5,306.7
		L250.5,307.2 L251.5,307.8 L252.4,308.4 L253.4,308.9 L254.3,309.5 L255.3,310.1 L256.3,310.6 L257.2,311.2
		L258.2,311.7 L259.1,312.3 L260.1,312.8 L261.1,313.3 L262.0,313.9 L263.0,314.4 L263.9,314.9 L264.9,315.4
		L265.9,316.0 L266.8,316.5 L267.8,317.0 L268.7,317.5 L269.7,318.0 L270.7,318.5 L271.6,319.0 L272.6,319.5
		L273.5,320.0 L274.5,320.5 L275.5,321.0 L276.4,321.5 L277.4,322.0 L278.3,322.5 L279.3,323.0 L280.3,323.4
		L281.2,323.9 L282.2,324.4 L283.1,324.9 L284.1,325.3 L285.1,325.8 L286.0,326.2 L287.0,326.7 L287.9,327.2
		L288.9,327.6 L289.9,328.1 L290.8,328.5 L291.8,329.0 L292.7,329.4 L293.7,329.8 L294.7,330.3 L295.6,330.7
		L296.6,331.1 L297.5,331.6 L298.5,332.0 L299.5,332.4 L300.4,332.8 L301.4,333.3 L302.3,333.7 L303.3,334.1
		L304.3,334.5 L305.2,334.9 L306.2,335.3 L307.1,335.7 L308.1,336.1 L309.1,336.5 L310.0,336.9 L311.0,337.3
		L311.9,337.7 L312.9,338.1 L313.9,338.5 L314.8,338.9 L315.8,339.3 L316.7,339.6 L317.7,340.0 L318.7,340.4
		L319.6,340.8 L320.6,341.1 L321.5,341.5 L322.5,341.9 L323.5,342.2 L324.4,342.6 L325.4,343.0 L326.3,343.3
		L327.3,343.7 L328.2,344.0 L329.2,344.4 L330.2,344.7 L331.1,345.1 L332.1,345.4 L333.0,345.8 L334.0,346.1
		L335.0,346.5 L335.9,346.8 L336.9,347.1 L337.8,347.5 L338.8,347.8 L339.8,348.1 L340.7,348.5 L341.7,348.8
		L342.6,349.1 L343.6,349.4 L344.6,349.7 L345.5,350.1 L346.5,350.4 L347.4,350.7 L348.4,351.0 L349.4,351.3
		L350.3,351.6 L351.3,351.9 L352.2,352.2 L353.2,352.5 L354.2,352.8 L355.1,353.1 L356.1,353.4 L357.0,353.7
		L358.0,354.0 L359.0,354.3 L359.9,354.6 L360.9,354.9 L361.8,355.2 L362.8,355.5 L363.8,355.8 L364.7,356.1
		L365.7,356.3 L366.6,356.6 L367.6,356.9 L368.6,357.2 L369.5,357.4 L370.5,357.7 L371.4,358.0 L372.4,358.3
		L373.4,358.5 L374.3,358.8 L375.3,359.1 L376.2,359.3 L377.2,359.6 L378.2,359.8 L379.1,360.1 L380.1,360.4
		L381.0,360.6 L382.0,360.9 L383.0,361.1 L383.9,361.4 L384.9,361.6 L385.8,361.9 L386.8,362.1 L387.8,362.4
		L388.7,362.6 L389.7,362.8 L390.6,363.1 L391.6,363.3 L392.6,363.6 L393.5,363.8 L394.5,364.0 L395.4,364.3
		L396.4,364.5 L397.4,364.7 L398.3,365.0 L399.3,365.2 L400.2,365.4 L401.2,365.6 L402.2,365.9 L403.1,366.1
		L404.1,366.3 L405.0,366.5 L406.0,366.7 L407.0,367.0 L407.9,367.2 L408.9,367.4 L409.8,367.6 L410.8,367.8
		L411.8,368.0 L412.7,368.2 L413.7,368.5 L414.6,368.7 L415.6,368.9 L416.6,369.1 L417.5,369.3 L418.5,369.5
		L419.4,369.7 L420.4,369.9 L421.4,370.1 L422.3,370.3 L423.3,370.5 L424.2,370.7 L425.2,370.9 L426.2,371.1
		L427.1,371.2 L428.1,371.4 L429.0,371.6 L430.0,371.8 L431.0,372.0 L431.9,372.2 L432.9,372.4 L433.8,372.6
		L434.8,372.7 L435.8,372.9 L436.7,373.1 L437.7,373.3 L438.6,373.5 L439.6,373.6 L440.6,373.8 L441.5,374.0
		L442.5,374.2 L443.4,374.3 L444.4,374.5 L445.4,374.7 L446.3,374.9 L447.3,375.0 L448.2,375.2 L449.2,375.4
		L450.2,375.5 L451.1,375.7 L452.1,375.9 L453.0,376.0 L454.0,376.2 L455.0,376.3 L455.9,376.5 L456.9,376.7
		L457.8,376.8 L458.8,377.0 L459.8,377.1 L460.7,377.3 L461.7,377.5 L462.6,377.6 L463.6,377.8 L464.6,377.9
		L465.5,378.1 L466.5,378.2 L467.4,378.4 L468.4,378.5 L469.4,378.7 L470.3,378.8 L471.3,379.0 L472.2,379.1
		L473.2,379.2 L474.2,379.4 L475.1,379.5 L476.1,379.7 L477.0,379.8 L478.0,380.0 L479.0,380.1 L479.9,380.2
		L480.9,380.4 L481.8,380.5 L482.8,380.6 L483.8,380.8 L484.7,380.9 L485.7,381.0 L486.6,381.2 L487.6,381.3
		L488.6,381.4 L489.5,381.6 L490.5,381.7 L491.4,381.8 L492.4,382.0 L493.4,382.1 L494.3,382.2 L495.3,382.3
		L496.2,382.5 L497.2,382.6 L498.2,382.7 L499.1,382.8 L500.1,383.0 L501.0,383.1 L502.0,383.2 L503.0,383.3
		L503.9,383.4 L504.9,383.6 L505.8,383.7 L506.8,383.8 L507.8,383.9 L508.7,384.0 L509.7,384.1 L510.6,384.3
		L511.6,384.4 L512.6,384.5 L513.5,384.6 L514.5,384.7 L515.4,384.8 L516.4,384.9 L517.4,385.0 L518.3,385.1
		L519.3,385.3 L520.2,385.4 L521.2,385.5 L522.2,385.6 L523.1,385.7 L524.1,385.8 L525.0,385.9 L526.0,386.0
		L527.0,386.1 L527.9,386.2 L528.9,386.3 L529.8,386.4 L530.8,386.5 L531.8,386.6 L532.7,386.7 L533.7,386.8
		L534.6,386.9 L535.6,387.0 L536.6,387.1 L537.5,387.2 L538.5,387.3 L539.4,387.4 L540.4,387.5 L541.4,387.6
		L542.3,387.7 L543.3,387.8 L544.2,387.9 L545.2,387.9 L546.2,388.0 L547.1,388.1 L548.1,388.2 L549.0,388.3
		L550.0,388.4 L550.9,388.5 L551.9,388.6 L552.9,388.7 L553.8,388.8 L554.8,388.8 L555.7,388.9 L556.7,389.0
		L557.7,389.1 L558.6,389.2 L559.6,389.3 L560.5,389.4 L561.5,389.4 L562.5,389.5  '/></g>
	</g>
	<g id="gnuplot_plot_2" ><title>Data</title>
<g fill="none" color="black" stroke="currentColor" stroke-width="1.00" stroke-linecap="butt" stroke-linejoin="miter">
	<g transform="translate(507.9,94.0)" stroke="none" fill="black" font-family="Arial" font-size="12.00"  text-anchor="end">
		<text><tspan font-family="Arial" >Data</tspan></text>
	</g>
</g>
<g fill="none" color="black" stroke="currentColor" stroke-width="1.00" stroke-linecap="butt" stroke-linejoin="miter">
	<path stroke='rgb(  0, 158, 115)'  d='M516.2,90.1 L558.4,90.1 M516.2,85.6 L516.2,94.6 M558.4,85.6 L558.4,94.6 M83.5,158.9 L83.5,90.1
		M79.0,158.9 L88.0,158.9 M79.0,90.1 L88.0,90.1 M136.8,258.7 L136.8,198.1 M132.3,258.7 L141.3,258.7
		M132.3,198.1 L141.3,198.1 M190.1,286.5 L190.1,230.9 M185.6,286.5 L194.6,286.5 M185.6,230.9 L194.6,230.9
		M243.5,320.9 L243.5,270.2 M239.0,320.9 L248.0,320.9 M239.0,270.2 L248.0,270.2 M296.8,340.6 L296.8,293.1
		M292.3,340.6 L301.3,340.6 M292.3,293.1 L301.3,293.1 M350.1,390.5 L350.1,346.3 M345.6,390.5 L354.6,390.5
		M345.6,346.3 L354.6,346.3 M403.4,396.2 L403.4,353.7 M398.9,396.2 L407.9,396.2 M398.9,353.7 L407.9,353.7
		M456.8,386.4 L456.8,345.5 M452.3,386.4 L461.3,386.4 M452.3,345.5 L461.3,345.5 M510.1,411.8 L510.1,372.5
		M505.6,411.8 L514.6,411.8 M505.6,372.5 L514.6,372.5 M563.4,405.2 L563.4,365.9 M558.9,405.2 L567.9,405.2
		M558.9,365.9 L567.9,365.9  '/>	<use xlink:href='#gpPt1' transform='translate(83.5,124.5) scale(4.50)' color='rgb(  0, 158, 115)'/>
	<use xlink:href='#gpPt1' transform='translate(136.8,228.4) scale(4.50)' color='rgb(  0, 158, 115)'/>
	<use xlink:href='#gpPt1' transform='translate(190.1,258.7) scale(4.50)' color='rgb(  0, 158, 115)'/>
	<use xlink:href='#gpPt1' transform='translate(243.5,295.5) scale(4.50)' color='rgb(  0, 158, 115)'/>
	<use xlink:href='#gpPt1' transform='translate(296.8,316.8) scale(4.50)' color='rgb(  0, 158, 115)'/>
	<use xlink:href='#gpPt1' transform='translate(350.1,368.4) scale(4.50)' color='rgb(  0, 158, 115)'/>
	<use xlink:href='#gpPt1' transform='translate(403.4,374.9) scale(4.50)' color='rgb(  0, 158, 115)'/>
	<use xlink:href='#gpPt1' transform='translate(456.8,365.9) scale(4.50)' color='rgb(  0, 158, 115)'/>
	<use xlink:href='#gpPt1' transform='translate(510.1,392.1) scale(4.50)' color='rgb(  0, 158, 115)'/>
	<use xlink:href='#gpPt1' transform='translate(563.4,385.6) scale(4.50)' color='rgb(  0, 158, 115)'/>
	<use xlink:href='#gpPt1' transform='translate(537.3,90.1) scale(4.50)' color='rgb(  0, 158, 115)'/>
</g>
	</g>
<g fill="none" color="#FFFFFF" stroke="rgb(  0, 158, 115)" stroke-width="2.00" stroke-linecap="butt" stroke-linejoin="miter">
</g>
<g fill="none" color="black" stroke="currentColor" stroke-width="2.00" stroke-linecap="butt" stroke-linejoin="miter">
</g>
<g fill="none" color="black" stroke="black" stroke-width="1.00" stroke-linecap="butt" stroke-linejoin="miter">
</g>
<g fill="none" color="black" stroke="currentColor" stroke-width="1.00" stroke-linecap="butt" stroke-linejoin="miter">
	<path stroke='black'  d='M71.9,54.1 L71.9,422.4 L575.0,422.4 L575.0,54.1 L71.9,54.1 Z  '/></g>
<g fill="none" color="black" stroke="currentColor" stroke-width="1.00" stroke-linecap="butt" stroke-linejoin="miter">
</g>
</g>
</svg>

