part A1 

A init
 0.840188 0.394383 0.783099
 0.798440 0.911647 0.197551
 0.335223 0.768230 0.277775
 0.553970 0.477397 0.628871
 0.364784 0.513401 0.952230

R
 1.376861 1.284461 1.165356
 0.000000 0.646889 -0.008386
 0.000000 0.000000 0.820685

Q^T*Q
 1.000000 -0.000000 -0.000000
 -0.000000 1.000000 -0.000000
 -0.000000 -0.000000 1.000000

Q*R
 0.840188 0.394383 0.783099
 0.798440 0.911647 0.197551
 0.335223 0.768230 0.277775
 0.553970 0.477397 0.628871
 0.364784 0.513401 0.952230

part A2 

A2 init
 0.916195 0.635712
 0.717297 0.141603

R
 1.163584 0.587845
 0.000000 0.280391

Q^T*Q
 1.000000 -0.000000
 -0.000000 1.000000

Q*R
 0.916195 0.635712
 0.717297 0.141603

b original
0.606969
0.0163006

A * x =
0.606969
0.0163006

part B 

result of A*B = 
 1.000000 0.000000
 0.000000 1.000000
